<?xml version="1.0" encoding="UTF-8" standalone="no"?>
<svg
   xmlns:dc="http://purl.org/dc/elements/1.1/"
   xmlns:cc="http://creativecommons.org/ns#"
   xmlns:rdf="http://www.w3.org/1999/02/22-rdf-syntax-ns#"
   xmlns:svg="http://www.w3.org/2000/svg"
   xmlns="http://www.w3.org/2000/svg"
   xmlns:sodipodi="http://sodipodi.sourceforge.net/DTD/sodipodi-0.dtd"
   xmlns:inkscape="http://www.inkscape.org/namespaces/inkscape"
   id="Layer_1"
   data-name="Layer 1"
   viewBox="0 0 128 134"
   version="1.1"
   sodipodi:docname="twitch.svg"
   inkscape:version="0.92.3 (2405546, 2018-03-11)">
  <metadata
     id="metadata13">
    <rdf:RDF>
      <cc:Work
         rdf:about="">
        <dc:format>image/svg+xml</dc:format>
        <dc:type
           rdf:resource="http://purl.org/dc/dcmitype/StillImage" />
        <dc:title>Glitch</dc:title>
      </cc:Work>
    </rdf:RDF>
  </metadata>
  <sodipodi:namedview
     pagecolor="#ffffff"
     bordercolor="#666666"
     borderopacity="1"
     objecttolerance="10"
     gridtolerance="10"
     guidetolerance="10"
     inkscape:pageopacity="0"
     inkscape:pageshadow="2"
     inkscape:window-width="1095"
     inkscape:window-height="691"
     id="namedview11"
     showgrid="false"
     inkscape:pagecheckerboard="true"
     inkscape:zoom="3.5223879"
     inkscape:cx="58.82251"
     inkscape:cy="62.391215"
     inkscape:window-x="2619"
     inkscape:window-y="269"
     inkscape:window-maximized="0"
     inkscape:current-layer="layer3" />
  <defs
     id="defs4">
    <style
       id="style2">.cls-1{fill:#6441a4;fill-rule:evenodd;}</style>
  </defs>
  <title
     id="title6">Glitch</title>
  <g
     inkscape:groupmode="layer"
     id="layer3"
     inkscape:label="Layer 3"
     style="display:inline">
    <path
       style="fill:#ffffff;stroke:#000000;stroke-width:1px;stroke-linecap:butt;stroke-linejoin:miter;stroke-opacity:1"
       d="m 19.23411,11.462394 -0.141949,85.204979 c 0,0 27.681754,-0.10658 27.481008,-0.10658 -0.200747,0 0,16.963077 0,16.963077 h 0.652426 L 64.4396,96.510607 96.525424,96.596398 117.03516,75.783539 116.83441,10.89226 Z"
       id="path4587"
       inkscape:connector-curvature="0" />
    <path
       inkscape:connector-curvature="0"
       class="cls-1"
       d="M 9,0 0,23 v 94 h 32 v 17 H 50 L 67,117 H 93 L 128,82 V 0 Z M 116,76 96,96 H 64 L 47,113 V 96 H 20 V 12 h 96 z M 96,35 V 70 H 84 V 35 Z M 64,35 V 70 H 52 V 35 Z"
       id="path8"
       style="fill:#6441a4;fill-rule:evenodd" />
  </g>
</svg>
